module gitlab.com/mi-max/api

go 1.17

require (
	github.com/cristalhq/aconfig v0.16.8
	github.com/go-chi/chi/v5 v5.0.7
	github.com/go-chi/cors v1.2.0
	github.com/pkg/errors v0.9.1
	github.com/pressly/goose/v3 v3.5.1
	github.com/stretchr/testify v1.7.0
	go.uber.org/zap v1.20.0
	gorm.io/driver/postgres v1.2.3
	gorm.io/gorm v1.22.5
	moul.io/zapgorm2 v1.1.2
)

require (
	github.com/davecgh/go-spew v1.1.1 // indirect
	github.com/jackc/chunkreader/v2 v2.0.1 // indirect
	github.com/jackc/pgconn v1.10.1 // indirect
	github.com/jackc/pgio v1.0.0 // indirect
	github.com/jackc/pgpassfile v1.0.0 // indirect
	github.com/jackc/pgproto3/v2 v2.2.0 // indirect
	github.com/jackc/pgservicefile v0.0.0-20200714003250-2b9c44734f2b // indirect
	github.com/jackc/pgtype v1.9.0 // indirect
	github.com/jackc/pgx/v4 v4.14.0 // indirect
	github.com/jinzhu/inflection v1.0.0 // indirect
	github.com/jinzhu/now v1.1.4 // indirect
	github.com/pmezard/go-difflib v1.0.0 // indirect
	go.uber.org/atomic v1.7.0 // indirect
	go.uber.org/multierr v1.7.0 // indirect
	golang.org/x/crypto v0.0.0-20210921155107-089bfa567519 // indirect
	golang.org/x/text v0.3.7 // indirect
	gopkg.in/yaml.v3 v3.0.0-20210107192922-496545a6307b // indirect
)
